Pokemon Data Explored
…
We previously determined that moves tend to have lower PP; all median values fall between 10 and 20, and every instance of 40 is an outlier. Let’s take a closer look at the uncommon 40 PP moves.

# A tibble: 23 x 29
      ID Name      Type  Category    PP Power Accuracy SwSh  BDSP  LA    Contact
   <dbl> <chr>     <chr> <chr>    <dbl> <dbl>    <dbl> <lgl> <lgl> <lgl> <lgl>  
 1    45 Growl     Norm~ Status      40     0      100 TRUE  TRUE  FALSE FALSE  
 2    81 String S~ Bug   Status      40     0       95 TRUE  TRUE  FALSE FALSE  
 3    96 Meditate  Psyc~ Status      40     0      101 FALSE FALSE FALSE FALSE  
 4   103 Screech   Norm~ Status      40     0       85 TRUE  TRUE  FALSE FALSE  
 5   110 Withdraw  Water Status      40     0      101 TRUE  TRUE  FALSE FALSE  
 6   111 Defense ~ Norm~ Status      40     0      101 TRUE  TRUE  FALSE FALSE  
 7   139 Poison G~ Pois~ Status      40     0       90 TRUE  TRUE  TRUE  FALSE  
 8   150 Splash    Norm~ Status      40     0      101 TRUE  TRUE  TRUE  FALSE  
 9   178 Cotton S~ Grass Status      40     0      100 TRUE  TRUE  FALSE FALSE  
10   193 Foresight Norm~ Status      40     0      101 FALSE FALSE FALSE FALSE  
# ... with 13 more rows, and 18 more variables: Target <chr>, SwSh_TM <lgl>,
#   SwSh_TM_No <dbl>, BDSP_TM <lgl>, BDSP_TM_No <dbl>, is_TR <lgl>, TR <dbl>,
#   Priority <dbl>, Multihit <dbl>, Charge <lgl>, Recharge <lgl>,
#   Binding <lgl>, Sound <lgl>, Powder <lgl>, Recoil <dbl>, Gen <dbl>,
#   Generation <chr>, Gimmick <chr>
…
